{
  "type": "service_account",
  "project_id": "reports-157409",
  "private_key_id": "ee93b421044f0a870bfcead34c2112330093550a",
  "private_key": "-----BEGIN PRIVATE KEY-----\nMIIEvQIBADANBgkqhkiG9w0BAQEFAASCBKcwggSjAgEAAoIBAQC4TaQkfPKBxy8e\nd4exOl0Hjjls1sbFphTO1oEMamidSiX/gAiGy4LkYErXeXDKS5Jslr6Yz0hspeh6\nCQsoFQmbKGZ74MXeh23fDvC1jcv23p3lmudQ9/b4LurPbOcMhm560Y/0eZwSgYYY\n2hgUBRiqLjrL0COA+R/FYaUVHeCyjLu6nPzPm1qIocuKW6S+weGH5Wgn7BKD25un\niK/hey/GS+3ma/lI3HQ3ZQPlBUarCyJDYscz08eNHLkqKFcIAncTmjx7DA0l1wx1\n2gTHciD5EF2gt6ouh+u5fzpswqGr3lmIh02HWTkeAiDh4+SIIg792FSsImRHLHbP\nb7sNSYN1AgMBAAECggEAEvtOH0LuIA8ha3ggldB+wdc0U2EYdkVJadceUebIsQBw\nwuyPFED0EWzYcHJNu0wGv9/Tr/3TRftdYuo5B68I/v2tdm87OdTFbF6HzI8W1W1u\nojXuwoBTY5LDdMsQzdGvob8hHisDN8W2x6r4pWEz/d0GibS9X1xpGQVaQP9Dg+f8\n67sPsjY/BbJkrVBdaUTF7MkIeVp0AbVZhNXP+ycSDWmQ0EO0gaU7RLlQvaiGyFWP\nCjPA/ZUFoVDoJLjcXkmltey//0YB0MO3gh5py1MbfWphhdNIPzzlIbr24/ljitB9\nbmIvUFfL+fO3fk0CvTBW7k6xJYyuBDwj/0q9PC800QKBgQD9el8zctBx4JA9W0i+\nfc858hk8KDseHzZcZRqBzNdPxs/NV7TL/JzxjCyz+uK7aVwkBe1e+9NY/rYrTU6w\n3gTxBduRZw7EUt7IK2Hx65RUm8lPToQun4fgQCkNSZBIUsKFosMScZAMph3itEQq\n1sjaOK5bkHPsiJUHRVIsnQmBsQKBgQC6IxNvGqFtKGYegivH2/9ON3bh5w9ok9BG\nymC5B1qocc/0/ESWlI6XmNADaomJsoX9LX1TnIl+QTxtizFG2NWwxq4RjB/BzU7T\nVw3th4KgxofitNHOu4MR2bmskPA0ADv4p2Zt1LBY/rwgmB+r9JwO2MSJxdSBoLfC\ni8jmzXVrBQKBgQCdixpyorDVpopf6EWdSBqtXEC8+BBOV331DU3dURCd3+a2LQYN\nJvPw2XvLXWrgqsp/BUQUnhYtIRrebQ00trmBiG+AvvoZoZwf837L2uz1bWJArX9Q\nbw0Hnzkkrg1ENlP6tT/jTbwHcJPwnLQloBt0LniIJo82e2mM/FPnsK8A8QKBgGhy\nnEohEGo3XC5MbxLEMVwLpYsX5D6TizDeCS5qoQWab84R7M7uZ6FLn5X7J1h8M9Gg\nwA217jVJmAYEME+IB0keA7lW/s76TPwsgmVCQBvFq6ScQIsYD3Fp0lWyMweLBhv+\nm2yQB7C4qIpFsqgEJ7nxC0AgIaHntJXXaJGSwwudAoGAZKs7BwSVKwuHGs6w7ooH\nU7PSEMJQ1ft77IQIX516ID+JetZABpzuQY7k2mg9I2yxFOnTSrEDpmOsHeSMac2P\nZUF3RE+OYLZcjlE03bHhj3jUenfqi/bUzo+43l3CXQMQi/lf0XdEb8SfsPVMP0nk\nWFOJz1Q9kN3ybe5ONOzyWqk=\n-----END PRIVATE KEY-----\n",
  "client_email": "737239829619-compute@developer.gserviceaccount.com",
  "client_id": "113936706721527540026",
  "auth_uri": "https://accounts.google.com/o/oauth2/auth",
  "token_uri": "https://accounts.google.com/o/oauth2/token",
  "auth_provider_x509_cert_url": "https://www.googleapis.com/oauth2/v1/certs",
  "client_x509_cert_url": "https://www.googleapis.com/robot/v1/metadata/x509/737239829619-compute%40developer.gserviceaccount.com"
}
